{
  "openapi": "3.0.0",
  "info": {
    "version": "1.0.5",
    "title": "LinkedListMicroservice"
  },
  "servers": [
    {
      "url": "http://localhost:8080"
    }
  ],
  "paths": {
    "/about": {
      "get": {
        "summary": "Gives basic information about the microservice, including all endpoints and associated params.",
        "operationId": "getAboutInformation",
        "tags": [
          "MicroserviceInformation"
        ],
        "responses": {
          "200": {
            "description": "Basic information about the microservice.",
            "content": {
              "application/json": {
                "schema": {
                  "$ref": "#/components/schemas/About"
                },
                "examples": {
                  "AboutExample": {
                    "$ref": "#/components/schemas/About/example"
                  }
                }
              }
            }
          }
        }
      }
    },
    "/linkedlist": {
      "get": {
        "summary": "Returns all linked lists, that are stored inside mongodb datastore.",
        "operationId": "getAllLinkedLists",
        "tags": [
          "linkedlist"
        ],
        "responses": {
          "200": {
            "description": "All linked lists that are stored in mongodb datastore.",
            "content": {
              "application/json": {
                "schema": {
                  "$ref": "#/components/schemas/MongoLinkedList"
                },
                "examples": {
                  "linkedListExample": {
                    "$ref": "#/components/schemas/MongoLinkedList/example"
                  }
                }
              }
            }
          },
          "default": {
            "description": "Unexpected error",
            "content": {
              "application/json": {
                "schema": {
                  "$ref": "#/components/schemas/Error"
                }
              }
            }
          }
        }
      },
      "post": {
        "summary": "Returns the given linked list reversed. The result is stored in the mongodb datastore.",
        "requestBody": {
          "description": "A linkedList that should be reversed.",
          "required": true,
          "content": {
            "application/json": {
              "schema": {
                "$ref": "#/components/schemas/LinkedList"
              },
              "examples": {
                "linkedListExample": {
                  "$ref": "#/components/examples/linkedListExample"
                }
              }
            }
          }
        },
        "tags": [
          "linkedlist"
        ],
        "responses": {
          "200": {
            "description": "The reveresed LinkedList",
            "content": {
              "application/json": {
                "schema": {
                  "$ref": "#/components/schemas/LinkedList"
                },
                "examples": {
                  "linkedListReversedExample": {
                    "$ref": "#/components/examples/linkedListReversedExample"
                  }
                }
              }
            }
          },
          "default": {
            "description": "Unexpected error",
            "content": {
              "application/json": {
                "schema": {
                  "$ref": "#/components/schemas/Error"
                }
              }
            }
          }
        }
      }
    },
    "/linkedlist/{elements}": {
      "get": {
        "summary": "Generates a linked list with a given number of elements. The list elements data is randomly generated and holds a number between 0 and 100.",
        "operationId": "generateLinkedList",
        "tags": [
          "linkedlist"
        ],
        "parameters": [
          {
            "name": "elements",
            "in": "path",
            "description": "Number of elements the LinkedList should have. Maximum is 6170",
            "required": true,
            "schema": {
              "type": "integer",
              "format": "int32",
              "minimum": 1,
              "maximum": 6170,
              "default": 20
            }
          }
        ],
        "responses": {
          "200": {
            "description": "A linked list with randomly generated datapoints.",
            "content": {
              "application/json": {
                "schema": {
                  "$ref": "#/components/schemas/LinkedList"
                },
                "examples": {
                  "linkedListExample": {
                    "$ref": "#/components/examples/linkedListExample"
                  }
                }
              }
            }
          },
          "default": {
            "description": "Unexpected error",
            "content": {
              "application/json": {
                "schema": {
                  "$ref": "#/components/schemas/Error"
                }
              }
            }
          }
        }
      }
    }
  },
  "components": {
    "examples": {
      "linkedListExample": {
        "value": {
          "length": 3,
          "head": {
            "data": 10,
            "nextNode": {
              "data": 42,
              "nextNode": {
                "data": 99,
                "nextNode": null
              }
            }
          }
        }
      },
      "linkedListReversedExample": {
        "value": {
          "length": 3,
          "head": {
            "data": 99,
            "nextNode": {
              "data": 42,
              "nextNode": {
                "data": 10,
                "nextNode": null
              }
            }
          }
        }
      },
      "endpointsExample": {
        "value": {
          "endpoints": {
            "0": {
              "url": "/linkedlist/x",
              "method": "GET",
              "description": "Generates a list that has x items with random numbers between 0 and 100 for the data.The list is then stored inside the mongodb datastore.",
              "params": {
                "name": "x",
                "description": "Number of items the list should have"
              }
            },
            "1": {
              "url": "/linkedlist",
              "method": "POST",
              "description": "Takes a linked list in json format and reverses it."
            }
          }
        }
      }
    },
    "schemas": {
      "About": {
        "type": "object",
        "required": [
          "name",
          "version",
          "endpoints"
        ],
        "properties": {
          "name": {
            "type": "string"
          },
          "version": {
            "type": "string"
          },
          "endpoints": {
            "type": "array",
            "items": {
              "$ref": "#/components/schemas/Endpoint"
            }
          }
        },
        "example": {
          "name": "linked-list-microservice",
          "version": "1.0.0",
          "endpoints": {
            "endpointsExample": {
              "$ref": "#/components/examples/endpointsExample"
            }
          }
        }
      },
      "Endpoint": {
        "type": "object",
        "required": [
          "url",
          "method",
          "description"
        ],
        "properties": {
          "url": {
            "type": "string"
          },
          "method": {
            "type": "string"
          },
          "description": {
            "type": "string"
          },
          "params": {
            "$ref": "#/components/schemas/params"
          }
        }
      },
      "params": {
        "type": "object",
        "required": [
          "name",
          "description"
        ],
        "properties": {
          "name": {
            "type": "string"
          },
          "desctiption": {
            "type": "string"
          }
        }
      },
      "MongoLinkedList": {
        "type": "object",
        "required": [
          "_id",
          "linkedList"
        ],
        "properties": {
          "_id": {
            "type": "string"
          },
          "linkedList": {
            "$ref": "#/components/schemas/LinkedList"
          }
        },
        "example": {
          "_id": "617c14f2c7260bcfadc3bf93",
          "linkedList": {
            "linkedListExample": {
              "$ref": "#/components/examples/linkedListExample"
            }
          }
        }
      },
      "LinkedList": {
        "type": "object",
        "required": [
          "linkedList"
        ],
        "properties": {
          "linkedList": {
            "type": "object",
            "properties": {
              "length": {
                "type": "integer"
              },
              "head": {
                "$ref": "#/components/schemas/nextNode"
              }
            }
          }
        },
        "example": {
          "linkedListExample": {
            "$ref": "#/components/examples/linkedListExample"
          }
        }
      },
      "Error": {
        "type": "object",
        "required": [
          "code",
          "message"
        ],
        "properties": {
          "code": {
            "type": "integer",
            "format": "int32"
          },
          "message": {
            "type": "string"
          }
        }
      },
      "nextNode": {
        "type": "object",
        "properties": {
          "data": {
            "type": "integer"
          },
          "nextNode": {
            "$ref": "#/components/schemas/nextNode"
          }
        },
        "example": {
          "nextNodeExample": {
            "$ref": "#/components/examples/linkedListExample/value/head"
          }
        }
      }
    }
  }
}